Term_P_0/simulation/qsim/termP0.msim.vcd
$comment
	File created using the following command:
		vcd file termP0.msim.vcd -direction
$end
$date
	Tue Nov 28 20:03:31 2023
$end
$version
	ModelSim Version 2020.1
$end
$timescale
	1ps
$end

$scope module d2b_3bit_vlg_vec_tst $end
$var reg 4 ! b [3:0] $end
$var wire 1 " out0 $end
$var wire 1 # out1 $end
$var wire 1 $ out2 $end
$var wire 1 % out3 $end
$var wire 1 & out4 $end
$var wire 1 ' out5 $end
$var wire 1 ( out6 $end
$var wire 1 ) out7 $end

$scope module i1 $end
$var wire 1 * gnd $end
$var wire 1 + vcc $end
$var wire 1 , unknown $end
$var tri1 1 - devclrn $end
$var tri1 1 . devpor $end
$var tri1 1 / devoe $end
$var wire 1 0 b[3]~input_o $end
$var wire 1 1 ~QUARTUS_CREATED_GND~I_combout $end
$var wire 1 2 b[0]~input_o $end
$var wire 1 3 b[1]~input_o $end
$var wire 1 4 b[2]~input_o $end
$var wire 1 5 inst~0_combout $end
$var wire 1 6 inst~1_combout $end
$var wire 1 7 inst~2_combout $end
$var wire 1 8 inst~3_combout $end
$var wire 1 9 inst~4_combout $end
$var wire 1 : inst~5_combout $end
$var wire 1 ; inst~6_combout $end
$var wire 1 < inst~7_combout $end
$upscope $end
$upscope $end
$enddefinitions $end
#0
$dumpvars
b0 !
1"
0#
0$
0%
0&
0'
0(
0)
0*
1+
x,
1-
1.
1/
00
01
02
03
04
15
06
07
08
09
0:
0;
0<
$end
#20000
b1000 !
10
#60000
b1001 !
12
16
05
0"
1#
#100000
b1011 !
b1010 !
02
13
17
06
0#
1$
#140000
b10 !
b0 !
03
00
07
15
1"
0$
#150000
b1 !
b11 !
12
13
18
05
0"
1%
#170000
b1011 !
10
#180000
b1010 !
b1000 !
02
03
08
15
1"
0%
#190000
b1100 !
14
19
05
0"
1&
#220000
b100 !
b101 !
12
00
1:
09
0&
1'
#250000
b111 !
b110 !
02
13
1;
0:
0'
1(
#280000
b100 !
03
0;
19
1&
0(
#290000
b101 !
b111 !
12
13
1<
09
0&
1)
#350000
b110 !
b100 !
02
03
0<
19
1&
0)
#370000
b0 !
04
09
15
1"
0&
#380000
b1000 !
10
#450000
b0 !
00
